
37.75108,-122.39488,1212160597000
37.75201,-122.39529,1212160662000
37.75203,-122.3953,1212160717000
37.75176,-122.39511,1212160786000
37.75158,-122.395,1212160837000
37.75148,-122.39501,1212160897000
37.75148,-122.39501,1212160920000
37.75148,-122.39502,1212160979000
37.75147,-122.39503,1212161039000
37.7515,-122.39499,1212161099000
37.75149,-122.39496,1212161159000
37.75144,-122.39497,1212161219000
37.75146,-122.39498,1212161350000
37.75145,-122.39502,1212161410000
37.75155,-122.39504,1212161470000
37.75147,-122.395,1212161530000
37.75135,-122.395,1212161590000
37.75121,-122.395,1212161650000
37.75119,-122.39499,1212161710000
37.75128,-122.39495,1212161771000
37.75128,-122.39495,1212161831000
37.75122,-122.39494,1212161892000
37.75122,-122.39495,1212161952000
37.75123,-122.39494,1212162013000
37.75123,-122.39494,1212162073000
37.75135,-122.39491,1212162134000
37.75137,-122.39491,1212162194000
37.75121,-122.39492,1212162255000
37.7512,-122.39491,1212162316000
37.7512,-122.39492,1212162376000
37.7512,-122.39492,1212162436000
37.75122,-122.3949,1212162498000
37.75111,-122.39485,1212162558000
37.75121,-122.39491,1212162619000
37.75117,-122.39491,1212162679000
37.75124,-122.39493,1212162740000
37.75124,-122.39493,1212162800000
37.7512,-122.39493,1212162862000
37.75114,-122.39491,1212162922000
37.75113,-122.39492,1212162983000
37.75112,-122.39493,1212163043000
37.75115,-122.39493,1212163105000
37.75112,-122.39494,1212163164000
37.75118,-122.39493,1212163225000
37.75114,-122.39494,1212163285000
37.75122,-122.39497,1212163346000
37.75115,-122.39494,1212163411000
37.75119,-122.39495,1212163466000
37.75115,-122.39495,1212163532000
37.75117,-122.39496,1212164910000
37.75172,-122.39498,1212164972000
37.75146,-122.39499,1212165027000
37.75157,-122.39506,1212165085000
37.75165,-122.39503,1212165145000
37.75171,-122.39507,1212165206000
37.7518,-122.39509,1212165266000
37.7518,-122.39507,1212165298000
37.75168,-122.39504,1212165358000
37.75162,-122.39502,1212165387000
37.75141,-122.39491,1212165446000
37.75158,-122.39493,1212165507000
37.75145,-122.3951,1212165662000
37.75135,-122.395,1212165723000
37.75147,-122.39499,1212165783000
37.75172,-122.39503,1212165843000
37.75164,-122.39506,1212165895000
37.75177,-122.39508,1212165956000
37.75162,-122.39511,1212166016000
37.75149,-122.39496,1212166077000
37.75141,-122.39496,1212166147000
37.75131,-122.39496,1212166205000
37.75123,-122.39507,1212166257000
37.75118,-122.39518,1212166319000
37.7513,-122.39512,1212166382000
37.75147,-122.39503,1212166448000
37.75151,-122.39509,1212166491000
37.75161,-122.39547,1212166551000
37.75127,-122.39494,1212166611000
37.75133,-122.39494,1212166672000
37.75133,-122.39494,1212166732000
37.75134,-122.39495,1212166792000
37.75135,-122.39498,1212166852000
37.75127,-122.39488,1212166912000
37.7513,-122.39493,1212166972000
37.75128,-122.39492,1212167033000
37.75127,-122.39493,1212167094000
37.75131,-122.39495,1212167156000
37.75135,-122.39491,1212167226000
37.75142,-122.39487,1212167276000
37.7514,-122.39486,1212167336000
37.75138,-122.3948,1212167375000
37.75138,-122.3948,1212167434000
37.75142,-122.39479,1212167494000
37.75141,-122.3948,1212167554000
37.75141,-122.39482,1212167614000
37.75136,-122.39476,1212167674000
37.75136,-122.39474,1212167735000
37.75139,-122.39474,1212167796000
37.75144,-122.39469,1212167856000
37.75145,-122.39468,1212167916000
37.75152,-122.39479,1212167977000
37.75162,-122.39494,1212168037000
37.75152,-122.39477,1212168103000
37.75141,-122.39461,1212168158000
37.75153,-122.39487,1212168219000
37.75163,-122.39497,1212168280000
37.75155,-122.39498,1212168341000
37.75166,-122.39498,1212168402000
37.75209,-122.3949,1212168462000
37.75137,-122.39502,1212168523000
37.75148,-122.39491,1212168584000
37.75192,-122.39492,1212168644000
37.75075,-122.39478,1212168753000
37.7508,-122.39465,1212168813000
37.75062,-122.39495,1212168873000
37.75063,-122.39498,1212168933000
37.75066,-122.39498,1212168993000
37.75065,-122.39498,1212169053000
37.75075,-122.39497,1212169153000
37.75075,-122.39497,1212169488000
37.75133,-122.3949,1212169542000
37.75124,-122.39493,1212169603000
37.75137,-122.39493,1212169663000
37.75138,-122.39493,1212169793000
37.7515,-122.39491,1212169854000
37.75138,-122.39491,1212169914000
37.75148,-122.39489,1212169974000
37.75147,-122.3949,1212170058000
37.75119,-122.39496,1212170118000
37.75127,-122.39495,1212170178000
37.7513,-122.395,1212170210000
37.75131,-122.39497,1212170269000
37.75133,-122.39496,1212170299000
37.75133,-122.39496,1212170313000
37.75132,-122.39495,1212170315000
37.75134,-122.39492,1212170375000
37.75134,-122.39491,1212170434000
37.75162,-122.39493,1212170495000
37.75155,-122.39493,1212170529000
37.75137,-122.39496,1212170589000
37.75136,-122.39496,1212170649000
37.75188,-122.39474,1212170695000
37.75157,-122.39485,1212170751000
37.75135,-122.39489,1212170811000
37.75106,-122.39493,1212170872000
37.75105,-122.39497,1212170932000
37.75085,-122.39495,1212170993000
37.75068,-122.39501,1212171054000
37.7507,-122.39499,1212171115000
37.75096,-122.39491,1212171147000
37.7512,-122.3949,1212171207000
37.7512,-122.3949,1212171267000
37.75123,-122.39496,1212171327000
37.75119,-122.39498,1212171387000
37.75113,-122.39498,1212171419000
37.75114,-122.395,1212171475000
37.75129,-122.3949,1212171535000
37.75137,-122.39489,1212171595000
37.75123,-122.39493,1212171656000
37.75118,-122.39496,1212171716000
37.75107,-122.39496,1212171777000
37.7513,-122.39492,1212171838000
37.75132,-122.39492,1212171958000
37.75153,-122.39491,1212172018000
37.75139,-122.3949,1212172084000
37.75115,-122.39495,1212172139000
37.75127,-122.395,1212172199000
37.7513,-122.395,1212172259000
37.75141,-122.39499,1212172319000
37.75154,-122.39498,1212172379000
37.75147,-122.39495,1212172439000
37.75154,-122.39497,1212172499000
37.7513,-122.39495,1212172560000
37.75159,-122.39483,1212172620000
37.75156,-122.39484,1212172681000
37.75143,-122.39488,1212172741000
37.75145,-122.39493,1212172802000
37.75138,-122.39494,1212172862000
37.75131,-122.39492,1212172888000
37.75162,-122.39499,1212172948000
37.75166,-122.39499,1212173019000
37.75166,-122.39499,1212173328000
37.75089,-122.39477,1212173352000
37.75121,-122.39507,1212173412000
37.75128,-122.39502,1212173478000